{
  "bg"            : "#f9f9f9",
  "bgAlt"         : "#f1f1f1",
  "border"        : "#ededed",
  "primary"       : "#de4f4f",
  "modalBg"       : "rgb(240, 244, 251)",
  "primaryBg"     : "#c5e3fc",
  "secondaryBg"   : "#F1F0F0",
  "secondary"     : "rgb(225, 0, 80)",
  "unimportant"   : "rgba(0,0,0,0.12)",

  "accent"        : "#3ecf8e",
  "accentBg"      : "#f6fff5",

  "success"       : "#3ecf8e",
  "successBg"     : "#f6fff5",
  "successBorder" : "rgba(58,193,51,.12)",

  "error"         : "#d66d75",

  "info"          : "#3297d3",
  "infoBg"        : "rgba(231,255,255,.8)",
  "infoBorder"    : "rgba(184,253,254,.8)",

  "main"          : "#444444",

  "description"   : "#9696a0",
  "descriptionBg" : "#f6f7f8",

  "link"          : "#008FFC",

  "grayBlue"      : "#535176",

  "activeButton"  : "#cace8e",
  "activeText"    : "#797d3b",
  "facebook"      : "#385898",
  "google"        : "#d93025",

  "// ----- PRIMARY COLORS ----- //": 0,

  "main1"         : "#2a438b",
  "main2"         : "#009cdd",
  "// main1"      : "#955d8f",
  "// main2"      : "#de8591",

  "// ----- GRADIENTS ------ //": 0,

  "blue1"         : "#2a438b",
  "blue2"         : "#009cdd",
  "blue3"         : "#2F93FF",
  "blue4"         : "#f6f9fd",
  "blue5"         : "#38A1F2",

  "darkBg1"      : "#0e0e14",
  "darkBg2"      : "#2e2e42",

  "purple1"       : "#614385",
  "purple2"       : "#516395",

  "teal1"         : "#13547a",
  "teal2"         : "#80d0c7",

  "green1"        : "#56ab2f",
  "green2"        : "#a8e063",

  "greenBg1"      : "#005310",
  "greenBg2"      : "#00c238",

  "red1"          : "#d66d75",
  "red2"          : "#e29587",
  "red3"          : "#ed1c24",
  "red4"          : "#E72E51",
  "red5"          : "#f7001e",
  "red6"          : "#ef5350",

  "gray1"         : "#777777",
  "gray2"         : "#999999",
  "gray3"         : "#dddddd",
  "gray4"         : "#d8d8d8",

  "grayBg1"      : "#dbdbdc",
  "grayBg2"      : "#eeefef",

  "yellow1"       : "#e6e142",
  "yellow2"       : "#f3f7aa",
  "yellow3"       : "#cace8f",

"// ----- TEXTS / FORMS / ICONS ----- ": 0,

  "blackGray"     : "#2e2e42",
  "darkGray"      : "#404053",
  "mediumGray"    : "#636372",
  "gray"          : "#75787b",

  "// ----- BACKGROUNDS ----- //": 0,

  "lightGray"     : "#eeeeee",
  "lightGray2"    : "#d0d0ce",
  "whiteGray"     : "#f5f5f5",
  "white"         : "#ffffff",

  "darkDeep"      : "#454545",
  "darkMedium"    : "#575757",
  "black"         : "#000000",

  "// ----- MAIN PALETTE ----- //": 0,

  "blue"          : "#00a2e0",
  "lightBlue"     : "#c6efff",
  "darkBlue"      : "#0092ff",

  "red"           : "#db504b",
  "lightRed"      : "#fadada",

  "green"         : "#86bc25",
  "// green"      : "#7ebd90",
  "lightGreen"    : "#b2d97b",
  "lightGreen2"   : "#c6e8d0",
  "neonGreen"     : "#00dd06",

  "teal"          : "#70c2b4",
  "mediumTeal"    : "#b4e1d2",
  "lightTeal"     : "#ddefe8",

  "orange"        : "#ff9800",

  "// ----- RADIAL-CHARTS ---- //": 0,
  "greenRadial": "#4eaf3a",
  "redRadial": "#cc0a0a",


  "// ----- TEXT COLORS ----- //": 0,
  "primaryText": "#535176",
  "primaryLightText": "#9897ad"
}
